<?xml version="1.0" encoding="utf-8"?>
<!-- Generator: Adobe Illustrator 17.0.0, SVG Export Plug-In . SVG Version: 6.00 Build 0)  -->
<!DOCTYPE svg PUBLIC "-//W3C//DTD SVG 1.1//EN" "http://www.w3.org/Graphics/SVG/1.1/DTD/svg11.dtd">
<svg version="1.1" id="Layer_1" xmlns="http://www.w3.org/2000/svg" xmlns:xlink="http://www.w3.org/1999/xlink" x="0px" y="0px"
	 width="46.269px" height="32.547px" viewBox="0 0 46.269 32.547" enable-background="new 0 0 46.269 32.547" xml:space="preserve">
<path fill="#FFFFFF" stroke="#FFFFFF" stroke-width="0.5" stroke-miterlimit="10" d="M45.681,15.577l-21.618-15.2
	c-0.169-0.169-0.507-0.169-0.844,0c-0.338,0.169-0.507,0.338-0.507,0.676v14.187L1.601,0.377c-0.169-0.169-0.507-0.169-0.844,0
	S0.25,0.714,0.25,1.052v30.4c0,0.338,0.169,0.507,0.507,0.676c0.169,0,0.169,0.169,0.338,0.169c0.169,0,0.338,0,0.507-0.169
	l21.111-14.862v14.187c0,0.338,0.169,0.507,0.507,0.676c0.169,0,0.169,0.169,0.338,0.169c0.169,0,0.338,0,0.507-0.169l21.618-15.2
	c0.169-0.169,0.338-0.338,0.338-0.676C46.019,15.914,46.019,15.746,45.681,15.577z M2.108,29.932V2.572l19.422,13.68L2.108,29.932z
	 M24.401,29.932V2.572l19.422,13.68L24.401,29.932z"/>
</svg>
