<?xml version="1.0" encoding="utf-8"?>
<!-- Generator: Adobe Illustrator 17.0.0, SVG Export Plug-In . SVG Version: 6.00 Build 0)  -->
<!DOCTYPE svg PUBLIC "-//W3C//DTD SVG 1.1//EN" "http://www.w3.org/Graphics/SVG/1.1/DTD/svg11.dtd">
<svg version="1.1" id="Capa_1" xmlns="http://www.w3.org/2000/svg" xmlns:xlink="http://www.w3.org/1999/xlink" x="0px" y="0px"
	 width="92px" height="120px" viewBox="60.5 16.5 92 120" enable-background="new 60.5 16.5 92 120" xml:space="preserve">
<g>
	<g>
		<path fill="#FFFFFF" d="M102.973,113.324c0-1.013,0.676-1.858,1.689-1.858h4.222c1.013,0,1.689,0.844,1.689,1.858v4.56
			c0,1.013-0.676,1.858-1.689,1.858h-4.222c-1.013,0-1.689-0.844-1.689-1.858V113.324z"/>
	</g>
	<path fill="#FFFFFF" d="M121.72,39.858c0-0.169,0-0.169,0-0.338c0-0.169,0-0.338,0-0.507c0-8.276-6.756-15.031-15.031-15.031
		s-15.031,6.756-15.031,15.031c0,0.169,0,0.338,0,0.507s0,0.169,0,0.338H85.24c-5.236,0-9.627,4.391-9.627,9.796v70.933
		c0,5.404,4.222,9.796,9.627,9.796h43.573c5.236,0,9.627-4.391,9.627-9.796V49.653c0-5.404-4.222-9.796-9.627-9.796H121.72
		L121.72,39.858z M120.876,44.249h7.938c2.871,0,5.067,2.364,5.067,5.404v70.933c0,2.871-2.196,5.404-5.067,5.404H85.24
		c-2.871,0-5.067-2.364-5.067-5.404V49.653c0-3.04,2.196-5.404,5.067-5.404h7.431c0.676,1.858,1.351,3.716,2.364,5.742h-7.093
		c-1.351,0-2.533,1.182-2.533,2.702v52.187c0,1.52,1.182,2.702,2.533,2.702h38.507c1.351,0,1.858-1.182,1.858-2.702V52.693
		c0-1.52-1.182-2.702-2.533-2.702h-7.262C119.356,47.964,120.2,46.107,120.876,44.249z M95.373,39.182c0-0.169,0-0.338,0-0.338
		c0-6.249,5.067-11.316,11.316-11.316c6.249,0,11.316,5.067,11.316,11.316c0,0.169,0,0.338,0,0.338c0,0.169,0,0.338,0,0.507
		c0,1.013-0.338,2.027-0.676,3.04c-0.169,0.507-0.338,1.013-0.507,1.52c-0.676,1.858-1.689,3.716-2.702,5.742
		c-2.364,4.56-5.573,9.12-7.431,11.484c-1.858-2.364-4.898-6.924-7.431-11.484c-1.013-1.858-2.027-3.884-2.702-5.742
		c-0.169-0.507-0.338-1.013-0.507-1.689c-0.338-0.844-0.507-1.858-0.676-2.871C95.373,39.52,95.373,39.351,95.373,39.182z"/>
	<circle fill="#FFFFFF" cx="106.689" cy="38.844" r="6.418"/>
</g>
</svg>
