<?xml version="1.0" encoding="utf-8"?>
<!-- Generator: Adobe Illustrator 17.0.0, SVG Export Plug-In . SVG Version: 6.00 Build 0)  -->
<!DOCTYPE svg PUBLIC "-//W3C//DTD SVG 1.1//EN" "http://www.w3.org/Graphics/SVG/1.1/DTD/svg11.dtd">
<svg version="1.1" id="Capa_1" xmlns="http://www.w3.org/2000/svg" xmlns:xlink="http://www.w3.org/1999/xlink" x="0px" y="0px"
	 width="114.676px" height="97.449px" viewBox="47.578 27.191 114.676 97.449"
	 enable-background="new 47.578 27.191 114.676 97.449" xml:space="preserve">
<g>
	<g>
		<path fill="#42BC51" d="M87.773,72.96c0,2.702-2.196,4.898-4.898,4.898l0,0c-2.702,0-4.898-2.196-4.898-4.898v-3.04
			c0-2.702,2.196-4.898,4.898-4.898l0,0c2.702,0,4.898,2.196,4.898,4.898V72.96z"/>
		<path fill="#42BC51" d="M133.036,72.453c0,2.702-2.196,4.898-4.898,4.898l0,0c-2.702,0-4.898-2.196-4.898-4.898v-3.04
			c0-2.702,2.196-4.898,4.898-4.898l0,0c2.702,0,4.898,2.196,4.898,4.898V72.453z"/>
		<g>
			<g>
				<path fill="#42BC51" d="M126.618,51.511l-4.222-11.484c-0.844-2.364-4.053-4.56-6.587-4.56H95.204
					c-2.533,0-5.573,2.196-6.418,4.56l-3.884,10.64l-7.6-2.702l3.884-10.809c2.027-5.573,8.107-9.964,14.018-9.964h20.773
					c5.911,0,12.16,4.391,14.187,9.796l4.222,11.484L126.618,51.511z"/>
			</g>
		</g>
		<path fill="#42BC51" d="M138.44,70.089H72.742V51.342c0,0,0.338-6.249,11.484-6.249c10.978,0,43.236,0,43.236,0
			s10.978-0.338,10.978,7.093S138.44,70.089,138.44,70.089z"/>
		<circle fill="#FFFFFF" cx="83.044" cy="55.733" r="5.404"/>
		<circle fill="#FFFFFF" cx="127.124" cy="55.733" r="5.404"/>
	</g>
	<path fill="#42BC51" d="M126.956,124.471h-18.747c0,0-0.844-8.276-0.844-11.147c0-2.871,0.169-8.444,7.431-15.707
		c7.093-7.093,16.889-8.107,19.591-8.107c2.702,0,10.978-13.004,18.071-14.862c7.262-2.027,3.209,2.027,1.689,3.547
		c-1.52,1.52-8.782,12.329-8.782,12.329l2.196-0.338c0,0,10.302-11.316,11.147-15.707c0.844-4.391-4.053-2.364-4.053-2.364
		s0.507-15.031,2.027-16.551c1.52-1.52,3.884-1.52,4.729,1.858c0.844,3.378,0.844,17.058,0.844,18.24s-7.262,20.098-10.133,22.8
		C149.249,101.502,125.942,123.627,126.956,124.471z"/>
	<path fill="#42BC51" d="M82.538,124.64h18.409c0,0,0.844-8.276,0.844-11.147c0-2.871-0.169-8.444-7.262-15.707
		c-7.093-7.262-16.889-8.276-19.422-8.276c-2.702,0-10.809-13.004-17.902-14.862c-7.093-2.027-3.04,2.027-1.52,3.547
		c1.52,1.52,8.613,12.329,8.613,12.329l-2.196-0.338c0,0-10.133-11.316-10.978-15.707c-0.844-4.391,4.053-2.364,4.053-2.364
		s-0.507-15.031-2.027-16.551c-1.351-1.52-3.884-1.52-4.729,1.858s-0.844,17.058-0.844,18.24c0,1.182,7.262,20.098,9.964,22.8
		C60.582,101.671,83.551,123.796,82.538,124.64z"/>
</g>
</svg>
