<?xml version="1.0" encoding="utf-8"?>
<!-- Generator: Adobe Illustrator 17.0.0, SVG Export Plug-In . SVG Version: 6.00 Build 0)  -->
<!DOCTYPE svg PUBLIC "-//W3C//DTD SVG 1.1//EN" "http://www.w3.org/Graphics/SVG/1.1/DTD/svg11.dtd">
<svg version="1.1" id="Capa_1" xmlns="http://www.w3.org/2000/svg" xmlns:xlink="http://www.w3.org/1999/xlink" x="0px" y="0px"
	 width="68.311px" height="60.15px" viewBox="74.521 48.614 68.311 60.15" enable-background="new 74.521 48.614 68.311 60.15"
	 xml:space="preserve">
<g>
	<path fill="#FFFFFF" d="M101.453,70.764c0.169,0,0.169,0.169,0.338,0.169c0.169,0,0.338,0.169,0.507,0.169
		c0.338,0.169,0.844,0.338,1.351,0.338c0.169,0,0.169,0,0.338,0c0,0,0,0,0.169,0H105h0.676c0,0,0,0,0.169,0s0.169,0,0.338,0
		c0.676-0.169,1.182-0.338,1.689-0.507c1.689-0.844,3.04-2.364,3.547-4.053v-0.169c0.169-0.507,0.338-1.182,0.338-1.689v-0.169
		c0-0.507,0-1.013-0.169-1.52c-0.507-2.533-2.533-4.56-5.067-5.067c-0.507-0.169-1.013-0.169-1.52-0.169
		c-2.196,0-4.053,1.013-5.236,2.533c-1.013,1.182-1.52,2.702-1.52,4.222c0,0.676,0.169,1.351,0.338,2.027
		C98.751,68.4,99.933,69.92,101.453,70.764z"/>
	<path fill="#FFFFFF" d="M95.542,81.404c-0.169,0-0.169,0-0.169,0c-0.338,0-0.507,0-0.844,0c-0.338,0-0.676-0.169-1.013-0.169
		c1.182,1.858,2.702,3.209,4.56,4.222c0.169,0.169,0.338,0.169,0.507,0.338c0.338,0.169,0.507,0.169,0.844,0.338
		c0.676,0.338,1.52,0.507,2.196,0.676c0.169,0,0.338,0,0.507,0h0.169c0,0,1.52,0.169,2.702,0h0.169c0.169,0,0.338,0,0.507,0
		c1.013-0.169,2.196-0.507,3.04-1.013c3.04-1.351,5.236-4.053,6.249-7.262v-0.169c0.338-1.013,0.507-2.027,0.507-3.04v-0.169
		c0-0.844-0.169-1.858-0.338-2.702c-0.338-1.182-0.844-2.364-1.52-3.547c0,0.169,0,0.338-0.169,0.676c0,0.169,0,0.169,0,0.338
		c-1.351,4.56-4.729,8.276-8.951,10.302c-1.351,0.676-2.871,1.182-4.391,1.351c-0.169,0-0.507,0-0.676,0c0,0-0.169,0-0.338,0h-1.858
		h-1.689V81.404z"/>
	<path fill="#FFFFFF" d="M118.511,55.396c-5.742,10.133,3.716,14.018-0.169,24.996c-2.533,7.262-13.68,15.707-26.009,4.898
		c-14.187-12.498-22.293,8.613-15.2,23.476h38.169h0.169c1.013,0,1.858-0.169,2.871-0.507c0,0,0,0,0.169,0
		c0.507-0.169,1.013-0.507,1.52-1.013c0,0,0,0,0.169,0c0.338-0.338,0.676-0.676,1.013-1.182c0.507-0.676,0.844-1.52,1.182-2.364
		l4.391-10.978l16.044-41.716C142.662,51.173,125.436,43.236,118.511,55.396z"/>
</g>
</svg>
