<?xml version="1.0" encoding="utf-8"?>
<!-- Generator: Adobe Illustrator 17.0.0, SVG Export Plug-In . SVG Version: 6.00 Build 0)  -->
<!DOCTYPE svg PUBLIC "-//W3C//DTD SVG 1.1//EN" "http://www.w3.org/Graphics/SVG/1.1/DTD/svg11.dtd">
<svg version="1.1" id="Layer_1" xmlns="http://www.w3.org/2000/svg" xmlns:xlink="http://www.w3.org/1999/xlink" x="0px" y="0px"
	 width="33.525px" height="48.691px" viewBox="0 0 33.525 48.691" enable-background="new 0 0 33.525 48.691" xml:space="preserve">
<g>
	<g>
		<path fill="#FFFFFF" d="M16.762,48.691L16.762,48.691c-0.319,0-0.798-0.16-0.958-0.479C15.166,47.255,0,25.703,0,16.763
			C0,7.503,7.503,0,16.762,0s16.763,7.503,16.763,16.763c0,8.94-15.166,30.492-15.805,31.29
			C17.561,48.372,17.082,48.691,16.762,48.691z M16.762,2.395C8.78,2.395,2.395,8.94,2.395,16.763
			c0,6.865,11.015,23.627,14.368,28.576C20.115,40.39,31.13,23.627,31.13,16.763C31.13,8.78,24.745,2.395,16.762,2.395z"/>
	</g>
	<g>
		<path fill="#FFFFFF" d="M16.762,23.308c-4.151,0-7.503-3.353-7.503-7.503s3.353-7.503,7.503-7.503s7.503,3.353,7.503,7.503
			S20.913,23.308,16.762,23.308z M16.762,10.696c-2.874,0-5.109,2.235-5.109,5.109s2.235,5.109,5.109,5.109s5.109-2.235,5.109-5.109
			S19.476,10.696,16.762,10.696z"/>
	</g>
</g>
</svg>
