<?xml version="1.0" encoding="utf-8"?>
<!-- Generator: Adobe Illustrator 17.0.0, SVG Export Plug-In . SVG Version: 6.00 Build 0)  -->
<!DOCTYPE svg PUBLIC "-//W3C//DTD SVG 1.1//EN" "http://www.w3.org/Graphics/SVG/1.1/DTD/svg11.dtd">
<svg version="1.1" id="Capa_1" xmlns="http://www.w3.org/2000/svg" xmlns:xlink="http://www.w3.org/1999/xlink" x="0px" y="0px"
	 width="103.36px" height="77.013px" viewBox="53.32 37.493 103.36 77.013" enable-background="new 53.32 37.493 103.36 77.013"
	 xml:space="preserve">
<g>
	<circle fill="#42BC51" cx="104.493" cy="101.502" r="13.004"/>
	<path fill="#42BC51" d="M156.511,63.84c-0.169-0.169-0.169-0.338-0.338-0.507C144.52,47.627,125.942,37.493,105,37.493l0,0
		c-20.942,0-39.52,10.133-51.173,25.84c-0.169,0.169-0.169,0.338-0.338,0.507c0,0.169-0.169,0.338-0.169,0.507
		c0,0.338,0.169,0.507,0.169,0.676l0.338,0.338l7.769,8.444c0.169,0.338,0.338,0.507,0.676,0.676
		c0.169,0.169,0.338,0.169,0.676,0.169c0.338,0,0.676-0.169,0.844-0.338c0.169-0.169,0.169-0.169,0.338-0.338
		C73.249,61.644,88.111,53.707,105,53.707s31.92,8.107,40.871,20.267c0.169,0.169,0.169,0.169,0.338,0.338
		c0.169,0.169,0.507,0.338,0.844,0.338c0.169,0,0.507,0,0.676-0.169c0.338-0.169,0.507-0.338,0.676-0.676l7.769-8.444l0.338-0.338
		c0.169-0.169,0.169-0.507,0.169-0.676C156.68,64.178,156.68,64.009,156.511,63.84z"/>
	<path fill="#42BC51" d="M138.44,80.391C131.178,71.44,119.018,65.36,105,65.36s-26.178,5.911-33.44,15.031
		c-0.169,0.169-0.338,0.507-0.507,0.676c0,0.169-0.169,0.338-0.169,0.507s0,0.338,0.169,0.507c0.169,0.338,0.338,0.507,0.676,0.676
		l7.431,7.938l0.169,0.169c0.169,0.169,0.507,0.338,0.844,0.338c0.169,0,0.338,0,0.507-0.169c0,0,0.169,0,0.169-0.169
		c0.169,0,0.169-0.169,0.338-0.169l0,0c3.884-4.898,12.836-10.64,23.813-10.64s19.929,5.742,23.813,10.64l0,0
		c0.169,0.169,0.169,0.169,0.338,0.169c0,0,0.169,0,0.169,0.169c0.169,0.169,0.338,0.169,0.507,0.169
		c0.338,0,0.676-0.169,0.844-0.338l0.169-0.169l7.431-7.938c0.338-0.169,0.507-0.338,0.676-0.676c0-0.169,0.169-0.338,0.169-0.507
		s0-0.338-0.169-0.507C138.778,80.729,138.609,80.56,138.44,80.391z"/>
</g>
</svg>
