<?xml version="1.0" encoding="utf-8"?>
<!-- Generator: Adobe Illustrator 17.0.0, SVG Export Plug-In . SVG Version: 6.00 Build 0)  -->
<!DOCTYPE svg PUBLIC "-//W3C//DTD SVG 1.1//EN" "http://www.w3.org/Graphics/SVG/1.1/DTD/svg11.dtd">
<svg version="1.1" id="Layer_1" xmlns="http://www.w3.org/2000/svg" xmlns:xlink="http://www.w3.org/1999/xlink" x="0px" y="0px"
	 width="56.44px" height="56.454px" viewBox="0 0 56.44 56.454" enable-background="new 0 0 56.44 56.454" xml:space="preserve">
<g>
	<path fill="#4AB752" d="M55.883,26.836c0.915-1.355,0.682-3.197-0.541-4.282c-1.302-1.156-1.83-2.918-1.378-4.6
		c0.425-1.579-0.393-3.245-1.902-3.874c-1.607-0.671-2.679-2.166-2.797-3.903c-0.111-1.632-1.425-2.942-3.058-3.047
		c-1.737-0.113-3.237-1.179-3.912-2.784c-0.513-1.218-1.698-2.005-3.019-2.005c-0.29,0-0.58,0.038-0.862,0.115
		c-0.391,0.107-0.796,0.161-1.201,0.161c-1.298,0-2.539-0.555-3.404-1.523C33.189,0.399,32.298,0,31.365,0
		c-0.658,0-1.294,0.196-1.84,0.566c-0.76,0.516-1.647,0.789-2.565,0.789c-0.78,0-1.551-0.201-2.232-0.583
		c-0.489-0.274-1.041-0.418-1.599-0.418c-1.027,0-2.008,0.49-2.624,1.311c-0.857,1.144-2.223,1.827-3.652,1.827
		c-0.273,0-0.549-0.025-0.818-0.074c-0.195-0.035-0.393-0.054-0.59-0.054c-1.424,0-2.677,0.912-3.115,2.269
		c-0.535,1.657-1.937,2.849-3.659,3.11c-1.617,0.245-2.814,1.663-2.784,3.298c0.032,1.741-0.908,3.323-2.451,4.129
		c-1.45,0.756-2.121,2.487-1.562,4.024c0.595,1.636,0.22,3.437-0.978,4.701c-1.126,1.187-1.199,3.041-0.172,4.313
		c1.094,1.354,1.325,3.18,0.602,4.764c-0.679,1.488-0.146,3.266,1.238,4.135c1.475,0.926,2.286,2.578,2.116,4.31
		c-0.159,1.628,0.922,3.136,2.514,3.509c1.696,0.397,2.998,1.696,3.401,3.39c0.352,1.483,1.662,2.519,3.185,2.519
		c0.111,0,0.222-0.006,0.333-0.017c0.152-0.015,0.307-0.023,0.46-0.023c1.573,0,3.016,0.794,3.857,2.125
		c0.604,0.955,1.64,1.525,2.771,1.525c0.474,0,0.935-0.102,1.368-0.301c0.603-0.277,1.245-0.419,1.909-0.419
		c1.035,0,2.05,0.357,2.857,1.004c0.579,0.465,1.307,0.721,2.049,0.721c0.847,0,1.651-0.322,2.263-0.907
		c0.853-0.814,1.973-1.263,3.153-1.263c0.528,0,1.048,0.091,1.545,0.27c0.358,0.129,0.732,0.194,1.109,0.194
		c1.229,0,2.344-0.678,2.91-1.77c0.787-1.521,2.34-2.466,4.053-2.466l0.117,0.001c1.61,0,3.003-1.202,3.239-2.796
		c0.255-1.722,1.442-3.128,3.097-3.669c1.555-0.508,2.502-2.103,2.204-3.712c-0.318-1.712,0.348-3.427,1.738-4.476
		c1.305-0.985,1.683-2.802,0.879-4.226C54.836,30.119,54.91,28.28,55.883,26.836L55.883,26.836z"/>
	<g>
		<path fill="#FFFFFF" d="M39.799,35.242h-7.527v-2.37l-2.164,2.866l-2.166,2.867l2.166,2.867l2.164,2.867v-1.641l4.011-0.151
			c3.546-0.213,4.393-1.677,4.393-1.677l3.983-7.402C43.191,35.515,39.799,35.242,39.799,35.242z"/>
		<path fill="#FFFFFF" d="M28.351,15.559l3.576,6.62l-2.084,1.127l3.553,0.543l3.55,0.543l1.492-3.267l1.495-3.267l-1.443,0.779
			l-2.038-3.456c-1.874-3.017-3.567-3.066-3.567-3.066l-8.403,0.01C26.98,12.444,28.351,15.559,28.351,15.559z"/>
		<path fill="#FFFFFF" d="M17.359,39.013c-0.089,3.012,3.476,3.466,3.476,3.466l4.426,0.074l0.139-7.424l-6.423-0.139
			C17.02,37.629,17.359,39.013,17.359,39.013z"/>
		<path fill="#FFFFFF" d="M38.655,33.886c3.271,0.305,4.278-0.703,4.278-0.703c2.621-1.483,1.164-4.771,1.164-4.771l-2.232-3.819
			l-6.419,3.729L38.655,33.886z"/>
		<path fill="#FFFFFF" d="M27.552,16.823c-1.285-3.023-2.653-3.432-2.653-3.432c-2.55-1.6-4.747,1.244-4.747,1.244l-2.302,3.779
			l6.332,3.876L27.552,16.823z"/>
		<path fill="#FFFFFF" d="M16.243,40.151c-0.99-2.315,1.005-5.077,1.004-5.076l3.901-6.435l2.026,1.229l-1.331-3.339l-1.326-3.338
			l-3.574,0.366l-3.576,0.366l1.401,0.848l-1.946,3.509c-1.655,3.143-0.84,4.627-0.84,4.627L16.243,40.151z"/>
		<path fill="#FFFFFF" d="M25.261,42.553l-4.426-0.074c0,0-3.566-0.455-3.476-3.466c0,0-0.339-1.384,1.618-4.023l6.423,0.139
			L25.261,42.553z"/>
		<path fill="#FFFFFF" d="M40.676,40.869c0,0-0.846,1.465-4.393,1.677l-4.011,0.151v1.641l-2.164-2.867l-2.166-2.867l2.166-2.867
			l2.164-2.866v2.37h7.527c0,0,3.392,0.273,4.86-1.775L40.676,40.869z"/>
		<path fill="#FFFFFF" d="M44.097,28.412c0,0,1.457,3.288-1.164,4.771c0,0-1.007,1.008-4.278,0.703l-3.209-5.564l6.419-3.729
			L44.097,28.412z"/>
		<path fill="#FFFFFF" d="M32.883,12.115c0,0,1.693,0.048,3.567,3.066l2.038,3.456l1.443-0.779l-1.495,3.267l-1.492,3.267
			l-3.55-0.543l-3.553-0.543l2.084-1.127l-3.576-6.62c0,0-1.371-3.115-3.871-3.434L32.883,12.115z"/>
		<path fill="#FFFFFF" d="M20.152,14.635c0,0,2.197-2.844,4.747-1.244c0,0,1.368,0.409,2.653,3.432l-3.37,5.468l-6.332-3.876
			L20.152,14.635z"/>
		<path fill="#FFFFFF" d="M12.822,28.282l1.946-3.509l-1.401-0.848l3.576-0.366l3.574-0.366l1.326,3.338l1.331,3.339l-2.026-1.229
			l-3.901,6.435c0.001-0.001-1.994,2.761-1.004,5.076l-4.261-7.241C11.982,32.91,11.167,31.425,12.822,28.282z"/>
	</g>
</g>
</svg>
