<?xml version="1.0" encoding="utf-8"?>
<!-- Generator: Adobe Illustrator 17.0.0, SVG Export Plug-In . SVG Version: 6.00 Build 0)  -->
<!DOCTYPE svg PUBLIC "-//W3C//DTD SVG 1.1//EN" "http://www.w3.org/Graphics/SVG/1.1/DTD/svg11.dtd">
<svg version="1.1" id="Layer_1" xmlns="http://www.w3.org/2000/svg" xmlns:xlink="http://www.w3.org/1999/xlink" x="0px" y="0px"
	 width="76.684px" height="75.29px" viewBox="0 0 76.684 75.29" enable-background="new 0 0 76.684 75.29" xml:space="preserve">
<path fill="#FFFFFF" stroke="#FFFFFF" stroke-width="0.5" stroke-miterlimit="10" d="M76.419,25.414l-8.444-6.08l-5.573,2.196
	l-0.169,9.964c-5.236-2.871-11.147-3.547-16.551-2.196c-2.702-8.444-10.133-14.862-19.422-15.876l5.573-8.107L28.961,0.25H18.49
	l-3.209,5.067l5.573,8.107C9.201,14.774,0.25,24.57,0.25,36.392c0,12.836,10.471,23.138,23.138,23.138
	c1.858,0,3.716-0.169,5.404-0.676c1.52,4.56,4.391,8.951,8.782,11.991c10.471,7.262,24.827,4.898,32.258-5.573
	c6.756-9.627,5.236-22.8-3.378-30.569l9.289-3.378L76.419,25.414z M75.068,25.752l-3.04,0.676l-0.169-3.04L75.068,25.752z
	 M67.974,20.686l3.04,2.196l-3.04,0.676L67.974,20.686z M67.637,24.57l3.04-0.676l0.169,3.04L67.637,24.57L67.637,24.57z
	 M70.508,27.948l-5.236,4.898l-1.013-0.676l2.871-6.587L70.508,27.948z M66.792,20.854l-0.169,3.04l-2.702-1.858L66.792,20.854z
	 M63.414,23.05l2.871,2.027l-2.871,6.587l-0.169-0.169L63.414,23.05z M25.414,12.579l1.351-6.924h3.378L25.414,12.579z
	 M24.401,12.579H23.05l-1.351-6.924h4.053L24.401,12.579z M30.312,4.472h-3.209V4.303h-0.338l2.196-2.533L30.312,4.472z
	 M28.286,1.263L26.09,3.628l-1.858-2.364H28.286z M25.583,4.472H21.53l0,0l2.196-2.364L25.583,4.472z M23.05,1.263l-2.196,2.364
	l-1.351-2.364H23.05z M18.659,1.939l1.689,2.533H16.97L18.659,1.939z M17.139,5.654h3.547l1.351,6.924h-0.169L17.139,5.654z
	 M28.623,57.672c-1.689,0.338-3.378,0.507-5.067,0.507c-12.16,0-21.956-9.964-21.956-21.956s9.796-21.956,21.956-21.956
	c9.796,0,18.24,6.418,20.942,15.369c-1.351,0.338-2.533,0.844-3.716,1.351c-2.196-7.262-9.12-12.667-17.227-12.667
	c-9.964,0-18.071,8.107-18.071,18.071s8.107,18.071,18.071,18.071c1.52,0,2.871-0.169,4.222-0.507
	c0.338-0.169,0.676-0.169,1.013-0.338c1.52-0.507,2.871-1.013,4.053-1.858c0.507-0.169,0.676-0.507,1.013-0.676
	c4.222-3.04,6.924-7.769,7.431-13.173c1.182-0.844,2.533-1.52,3.884-1.858c0,0.169,0,0.169,0,0.507
	c0,8.107-4.391,15.2-11.147,19.084c-0.338,0.169-0.676,0.338-1.013,0.507c-1.351,0.676-2.533,1.182-3.884,1.52
	C29.468,57.503,28.961,57.672,28.623,57.672z M27.948,52.606c-1.351,0.338-2.702,0.507-4.222,0.507
	c-9.289,0-17.058-7.6-17.058-17.058s7.6-17.058,17.058-17.058c7.6,0.169,14.187,5.236,16.213,12.16
	c-3.04,1.689-5.742,4.053-7.769,6.924C29.13,42.641,27.779,47.708,27.948,52.606z M34.366,49.397
	c0.338-2.533,1.351-5.236,2.871-7.431c1.013-1.351,2.027-2.533,3.209-3.378C39.77,42.979,37.574,46.694,34.366,49.397z
	 M46.694,35.548c4.729-1.351,9.964-0.507,14.356,2.533c7.6,5.404,9.458,16.044,4.053,23.644c-5.404,7.6-16.044,9.458-23.644,4.053
	c-3.378-2.364-5.404-5.573-6.587-9.289c7.093-4.053,11.822-11.484,11.822-20.267C46.694,36.054,46.694,35.717,46.694,35.548z
	 M68.988,64.428c-6.924,9.964-20.773,12.329-30.738,5.236c-4.053-2.871-6.924-6.924-8.276-11.316
	c1.351-0.507,2.533-0.844,3.884-1.52c1.013,3.716,3.378,7.262,6.924,9.627c8.107,5.742,19.422,3.716,25.164-4.222
	c5.742-8.107,3.716-19.422-4.222-25.164c-4.56-3.209-9.964-4.053-14.862-2.702c-0.338,0.169-0.676,0.169-1.013,0.338
	c-1.351,0.507-2.533,1.013-3.716,1.689c-0.507,0.169-0.676,0.507-1.013,0.676c-1.689,1.182-3.04,2.533-4.222,4.222
	c-1.858,2.702-3.04,5.742-3.209,8.951c-1.351,0.844-2.702,1.689-4.222,2.027c-0.169-4.56,1.182-9.289,4.053-13.511
	c1.858-2.871,4.56-4.898,7.262-6.587c0.338-0.169,0.676-0.338,1.013-0.507c1.182-0.507,2.364-1.013,3.716-1.351
	c0.338-0.169,0.676-0.169,1.013-0.169c5.911-1.351,12.498-0.507,17.902,3.378C73.717,40.783,76.081,54.463,68.988,64.428z
	 M66.117,33.352l5.236-4.898l2.871,1.858L66.117,33.352z M74.899,29.806l-2.702-1.858l0,0l-0.169-0.169l3.04-0.676L74.899,29.806z"
	/>
</svg>
