{
	"es":{
		"titulo": "Post 1",
		"contenido": "<p>Contenido</p>",
		"excerpt": "<p>Contenido resumen</p>",
		"slug": "post-1",
		"imagen":{
			"thumbnail": "http://res.cloudinary.com/dpopbzdd4/image/upload/c_fit,h_160,w_160/ntltkcpqccff7wimfkdc.jpg",
			"full": "http://res.cloudinary.com/dpopbzdd4/image/upload/ntltkcpqccff7wimfkdc.jpg"
		},
		"seo":{
			"titulo": "Seo title",
			"contenido": "Seo Contenido"
		}
	},
	"en":{
		"titulo": "Post 1",
		"contenido": "<p>Contenido</p>",
		"excerpt": "<p>Contenido resumen</p>",
		"slug": "post-1",
		"imagen":{
			"thumbnail": "http://res.cloudinary.com/dpopbzdd4/image/upload/c_fit,h_160,w_160/ntltkcpqccff7wimfkdc.jpg",
			"full": "http://res.cloudinary.com/dpopbzdd4/image/upload/ntltkcpqccff7wimfkdc.jpg"
		},
		"seo":{
			"titulo": "Seo title",
			"contenido": "Seo Contenido"
		}
	},	
	"publicar": "true",
	"fecha":  ISODate("2018-01-26T17:16:38.837Z")    
}